[gd_scene load_steps=3 format=1]

[ext_resource path="res://Textures/Block.png" type="Texture" id=1]

[sub_resource type="ConvexPolygonShape2D" id=1]

custom_solver_bias = 0.0
points = Vector2Array( -16, -16, 16, -16, 16, 16, -16, 16 )

[node name="Root" type="Node2D"]

[node name="Wall" type="Sprite" parent="."]

texture = ExtResource( 1 )
region = true
region_rect = Rect2( 0, 0, 32, 32 )

[node name="Body" type="StaticBody2D" parent="Wall"]

input/pickable = false
shapes/0/shape = SubResource( 1 )
shapes/0/transform = Matrix32( 1, 0, 0, 1, 0, 0 )
shapes/0/trigger = false
collision/layers = 1
collision/mask = 1
constant_linear_velocity = Vector2( 0, 0 )
constant_angular_velocity = 0.0
friction = 1.0
bounce = 0.0

[node name="Shape" type="CollisionPolygon2D" parent="Wall/Body"]

build_mode = 0
polygon = Vector2Array( -16, -16, 16, -16, 16, 16, -16, 16 )
shape_range = Vector2( 0, 0 )
trigger = false


